{
	"info": {
		"_postman_id": "d1332602-4aaf-4eab-ac92-80ce20da038a",
		"name": "generic",
		"schema": "https://schema.getpostman.com/json/collection/v2.1.0/collection.json"
	},
	"item": [
		{
			"name": "1.0 Create admin fakeToken",
			"event": [
				{
					"listen": "test",
					"script": {
						"id": "f9b00361-fb3a-4711-a5b6-b658bc68824e",
						"exec": [
							"",
							"var jsonData = pm.response.json();",
							"pm.environment.set(\"access_token\", jsonData.data.access_token.access_token);",
							"pm.environment.set(\"user_id\", jsonData.data.access_token.user_id);",
							"",
							"pm.test(\"Response time is less than 200ms\", function () {",
							"    pm.expect(pm.response.responseTime).to.be.below(200);",
							"});"
						],
						"type": "text/javascript"
					}
				}
			],
			"request": {
				"auth": {
					"type": "basic",
					"basic": [
						{
							"key": "password",
							"value": "{{app_password}}",
							"type": "string"
						},
						{
							"key": "username",
							"value": "{{app_user}}",
							"type": "string"
						},
						{
							"key": "saveHelperData",
							"value": true,
							"type": "boolean"
						},
						{
							"key": "showPassword",
							"value": false,
							"type": "boolean"
						}
					]
				},
				"method": "GET",
				"header": [],
				"url": {
					"raw": "{{protocol}}://{{server}}/api/{{ver}}/sample/fakeToken/admin",
					"protocol": "{{protocol}}",
					"host": [
						"{{server}}"
					],
					"path": [
						"api",
						"{{ver}}",
						"sample",
						"fakeToken",
						"admin"
					]
				}
			},
			"response": [
				{
					"name": "1.0 Create admin fakeToken",
					"originalRequest": {
						"method": "GET",
						"header": [],
						"url": {
							"raw": "{{protocol}}://{{server}}/api/{{ver}}/sample/fakeToken/admin",
							"protocol": "{{protocol}}",
							"host": [
								"{{server}}"
							],
							"path": [
								"api",
								"{{ver}}",
								"sample",
								"fakeToken",
								"admin"
							]
						}
					},
					"status": "OK",
					"code": 200,
					"_postman_previewlanguage": "json",
					"header": [
						{
							"key": "Server",
							"value": "nginx/1.15.8"
						},
						{
							"key": "Content-Type",
							"value": "application/json"
						},
						{
							"key": "Transfer-Encoding",
							"value": "chunked"
						},
						{
							"key": "Connection",
							"value": "keep-alive"
						},
						{
							"key": "Vary",
							"value": "Accept-Encoding"
						},
						{
							"key": "X-Powered-By",
							"value": "PHP/7.1.30"
						},
						{
							"key": "Cache-Control",
							"value": "no-cache, private"
						},
						{
							"key": "Date",
							"value": "Mon, 26 Aug 2019 03:22:04 GMT"
						},
						{
							"key": "Content-Encoding",
							"value": "gzip"
						}
					],
					"cookie": [],
					"body": "{\n    \"result\": {\n        \"message\": \"Success!!!\",\n        \"server_time\": \"2019-08-26 11:22:04\"\n    },\n    \"data\": {\n        \"access_token\": {\n            \"user_id\": \"0\",\n            \"type\": \"2\",\n            \"access_token\": \"kQdnHEU18vjEmaJzNOkNYKko8gaWzE3X\"\n        }\n    }\n}"
				}
			]
		},
		{
			"name": "1.1 Create User fake token",
			"event": [
				{
					"listen": "test",
					"script": {
						"id": "373db425-e057-419f-a51e-d1865d5e9bd9",
						"exec": [
							"",
							"var jsonData = pm.response.json();",
							"pm.environment.set(\"access_token\", jsonData.data.access_token.access_token);",
							"pm.environment.set(\"user_id\", jsonData.data.access_token.user_id);",
							"",
							"pm.test(\"Response time is less than 200ms\", function () {",
							"    pm.expect(pm.response.responseTime).to.be.below(200);",
							"});"
						],
						"type": "text/javascript"
					}
				}
			],
			"request": {
				"auth": {
					"type": "basic",
					"basic": [
						{
							"key": "password",
							"value": "{{app_password}}",
							"type": "string"
						},
						{
							"key": "username",
							"value": "{{app_user}}",
							"type": "string"
						},
						{
							"key": "saveHelperData",
							"value": true,
							"type": "boolean"
						},
						{
							"key": "showPassword",
							"value": false,
							"type": "boolean"
						}
					]
				},
				"method": "GET",
				"header": [],
				"url": {
					"raw": "{{protocol}}://{{server}}/api/{{ver}}/sample/fakeToken/user",
					"protocol": "{{protocol}}",
					"host": [
						"{{server}}"
					],
					"path": [
						"api",
						"{{ver}}",
						"sample",
						"fakeToken",
						"user"
					]
				}
			},
			"response": [
				{
					"name": "1.1 Create User fake token",
					"originalRequest": {
						"method": "GET",
						"header": [],
						"url": {
							"raw": "{{protocol}}://{{server}}/api/{{ver}}/sample/fakeToken/user",
							"protocol": "{{protocol}}",
							"host": [
								"{{server}}"
							],
							"path": [
								"api",
								"{{ver}}",
								"sample",
								"fakeToken",
								"user"
							]
						}
					},
					"status": "OK",
					"code": 200,
					"_postman_previewlanguage": "json",
					"header": [
						{
							"key": "Server",
							"value": "nginx/1.15.8"
						},
						{
							"key": "Content-Type",
							"value": "application/json"
						},
						{
							"key": "Transfer-Encoding",
							"value": "chunked"
						},
						{
							"key": "Connection",
							"value": "keep-alive"
						},
						{
							"key": "Vary",
							"value": "Accept-Encoding"
						},
						{
							"key": "X-Powered-By",
							"value": "PHP/7.1.30"
						},
						{
							"key": "Cache-Control",
							"value": "no-cache, private"
						},
						{
							"key": "Date",
							"value": "Mon, 26 Aug 2019 03:24:15 GMT"
						},
						{
							"key": "Content-Encoding",
							"value": "gzip"
						}
					],
					"cookie": [],
					"body": "{\n    \"result\": {\n        \"message\": \"Success!!!\",\n        \"server_time\": \"2019-08-26 11:24:15\"\n    },\n    \"data\": {\n        \"access_token\": {\n            \"user_id\": \"0\",\n            \"access_token\": \"tBlKr4ytugVxkrM6IjjQA9NgY3AFdQDO\",\n            \"type\": \"1\"\n        }\n    }\n}"
				}
			]
		},
		{
			"name": "2.0 basic auth all",
			"request": {
				"auth": {
					"type": "basic",
					"basic": [
						{
							"key": "password",
							"value": "{{access_token}}",
							"type": "string"
						},
						{
							"key": "username",
							"value": "{{user_id}}",
							"type": "string"
						},
						{
							"key": "saveHelperData",
							"value": true,
							"type": "boolean"
						},
						{
							"key": "showPassword",
							"value": false,
							"type": "boolean"
						}
					]
				},
				"method": "GET",
				"header": [],
				"url": {
					"raw": "{{protocol}}://{{server}}/api/{{ver}}/sample/all?ut=2017-08-13T12:00:00&lang=en&app_ver=1.00&device_kind=1",
					"protocol": "{{protocol}}",
					"host": [
						"{{server}}"
					],
					"path": [
						"api",
						"{{ver}}",
						"sample",
						"all"
					],
					"query": [
						{
							"key": "ut",
							"value": "2017-08-13T12:00:00"
						},
						{
							"key": "lang",
							"value": "en"
						},
						{
							"key": "app_ver",
							"value": "1.00"
						},
						{
							"key": "device_kind",
							"value": "1"
						}
					]
				}
			},
			"response": []
		},
		{
			"name": "2.1 basic auth guest",
			"request": {
				"auth": {
					"type": "basic",
					"basic": [
						{
							"key": "password",
							"value": "{{app_password}}",
							"type": "string"
						},
						{
							"key": "username",
							"value": "{{app_user}}",
							"type": "string"
						},
						{
							"key": "saveHelperData",
							"value": true,
							"type": "boolean"
						},
						{
							"key": "showPassword",
							"value": false,
							"type": "boolean"
						}
					]
				},
				"method": "GET",
				"header": [],
				"url": {
					"raw": "{{protocol}}://{{server}}/api/{{ver}}/sample/guest?ut=2017-08-13T12:00:00&lang=en&app_ver=1.00&device_kind=1",
					"protocol": "{{protocol}}",
					"host": [
						"{{server}}"
					],
					"path": [
						"api",
						"{{ver}}",
						"sample",
						"guest"
					],
					"query": [
						{
							"key": "ut",
							"value": "2017-08-13T12:00:00"
						},
						{
							"key": "lang",
							"value": "en"
						},
						{
							"key": "app_ver",
							"value": "1.00"
						},
						{
							"key": "device_kind",
							"value": "1"
						}
					]
				}
			},
			"response": [
				{
					"name": "1.1 basic auth guest",
					"originalRequest": {
						"method": "GET",
						"header": [],
						"url": {
							"raw": "{{protocol}}://{{server}}/api/{{ver}}/sample/guest?ut=2017-08-13T12:00:00&lang=en&app_ver=1.00&device_kind=1",
							"protocol": "{{protocol}}",
							"host": [
								"{{server}}"
							],
							"path": [
								"api",
								"{{ver}}",
								"sample",
								"guest"
							],
							"query": [
								{
									"key": "ut",
									"value": "2017-08-13T12:00:00"
								},
								{
									"key": "lang",
									"value": "en"
								},
								{
									"key": "app_ver",
									"value": "1.00"
								},
								{
									"key": "device_kind",
									"value": "1"
								}
							]
						}
					},
					"status": "OK",
					"code": 200,
					"_postman_previewlanguage": "json",
					"header": [
						{
							"key": "Server",
							"value": "nginx/1.15.8"
						},
						{
							"key": "Content-Type",
							"value": "application/json"
						},
						{
							"key": "Transfer-Encoding",
							"value": "chunked"
						},
						{
							"key": "Connection",
							"value": "keep-alive"
						},
						{
							"key": "Vary",
							"value": "Accept-Encoding"
						},
						{
							"key": "X-Powered-By",
							"value": "PHP/7.1.30"
						},
						{
							"key": "Cache-Control",
							"value": "no-cache, private"
						},
						{
							"key": "Date",
							"value": "Mon, 26 Aug 2019 03:19:39 GMT"
						},
						{
							"key": "Content-Encoding",
							"value": "gzip"
						}
					],
					"cookie": [],
					"body": "{\n    \"result\": {\n        \"message\": \"Success!!!\",\n        \"server_time\": \"2019-08-26 11:19:39\"\n    },\n    \"data\": {\n        \"pages\": [\n            {\n                \"id\": 1,\n                \"title\": \"Privacy Policy\",\n                \"slug\": \"privacy\",\n                \"content\": \"Lorem Ipsum is simply dummy text of the printing and typesetting industry. Lorem Ipsum has been the industry's standard dummy text ever since the 1500s, when an unknown printer took a galley of type and scrambled it to make a type specimen book. It has survived not only five centuries, but also the leap into electronic typesetting, remaining essentially unchanged. It was popularised in the 1960s with the release of Letraset sheets containing Lorem Ipsum passages, and more recently with desktop publishing software like Aldus PageMaker including versions of Lorem Ipsum\"\n            },\n            {\n                \"id\": 2,\n                \"title\": \"Term and Condition\",\n                \"slug\": \"terms\",\n                \"content\": \"Lorem Ipsum is simply dummy text of the printing and typesetting industry. Lorem Ipsum has been the industry's standard dummy text ever since the 1500s, when an unknown printer took a galley of type and scrambled it to make a type specimen book. It has survived not only five centuries, but also the leap into electronic typesetting, remaining essentially unchanged. It was popularised in the 1960s with the release of Letraset sheets containing Lorem Ipsum passages, and more recently with desktop publishing software like Aldus PageMaker including versions of Lorem Ipsum\"\n            }\n        ],\n        \"mobile_version\": {\n            \"need_update\": 0,\n            \"force_update\": 0,\n            \"mobile_version\": []\n        }\n    }\n}"
				}
			]
		},
		{
			"name": "2.2 basic auth admin",
			"request": {
				"auth": {
					"type": "basic",
					"basic": [
						{
							"key": "password",
							"value": "{{access_token}}",
							"type": "string"
						},
						{
							"key": "username",
							"value": "{{user_id}}",
							"type": "string"
						},
						{
							"key": "saveHelperData",
							"value": true,
							"type": "boolean"
						},
						{
							"key": "showPassword",
							"value": false,
							"type": "boolean"
						}
					]
				},
				"method": "GET",
				"header": [],
				"url": {
					"raw": "{{protocol}}://{{server}}/api/{{ver}}/sample/admin?ut=2017-08-13T12:00:00&lang=en&app_ver=1.00&device_kind=1",
					"protocol": "{{protocol}}",
					"host": [
						"{{server}}"
					],
					"path": [
						"api",
						"{{ver}}",
						"sample",
						"admin"
					],
					"query": [
						{
							"key": "ut",
							"value": "2017-08-13T12:00:00"
						},
						{
							"key": "lang",
							"value": "en"
						},
						{
							"key": "app_ver",
							"value": "1.00"
						},
						{
							"key": "device_kind",
							"value": "1"
						}
					]
				}
			},
			"response": [
				{
					"name": "1.2 basic auth admin",
					"originalRequest": {
						"method": "GET",
						"header": [],
						"url": {
							"raw": "{{protocol}}://{{server}}/api/{{ver}}/sample/admin?ut=2017-08-13T12:00:00&lang=en&app_ver=1.00&device_kind=1",
							"protocol": "{{protocol}}",
							"host": [
								"{{server}}"
							],
							"path": [
								"api",
								"{{ver}}",
								"sample",
								"admin"
							],
							"query": [
								{
									"key": "ut",
									"value": "2017-08-13T12:00:00"
								},
								{
									"key": "lang",
									"value": "en"
								},
								{
									"key": "app_ver",
									"value": "1.00"
								},
								{
									"key": "device_kind",
									"value": "1"
								}
							]
						}
					},
					"status": "OK",
					"code": 200,
					"_postman_previewlanguage": "json",
					"header": [
						{
							"key": "Server",
							"value": "nginx/1.15.8"
						},
						{
							"key": "Content-Type",
							"value": "application/json"
						},
						{
							"key": "Transfer-Encoding",
							"value": "chunked"
						},
						{
							"key": "Connection",
							"value": "keep-alive"
						},
						{
							"key": "Vary",
							"value": "Accept-Encoding"
						},
						{
							"key": "X-Powered-By",
							"value": "PHP/7.1.30"
						},
						{
							"key": "Cache-Control",
							"value": "no-cache, private"
						},
						{
							"key": "Date",
							"value": "Mon, 26 Aug 2019 03:22:59 GMT"
						},
						{
							"key": "Content-Encoding",
							"value": "gzip"
						}
					],
					"cookie": [],
					"body": "{\n    \"result\": {\n        \"message\": \"Success!!!\",\n        \"server_time\": \"2019-08-26 11:22:59\"\n    },\n    \"data\": {\n        \"pages\": [\n            {\n                \"id\": 1,\n                \"title\": \"Privacy Policy\",\n                \"slug\": \"privacy\",\n                \"content\": \"Lorem Ipsum is simply dummy text of the printing and typesetting industry. Lorem Ipsum has been the industry's standard dummy text ever since the 1500s, when an unknown printer took a galley of type and scrambled it to make a type specimen book. It has survived not only five centuries, but also the leap into electronic typesetting, remaining essentially unchanged. It was popularised in the 1960s with the release of Letraset sheets containing Lorem Ipsum passages, and more recently with desktop publishing software like Aldus PageMaker including versions of Lorem Ipsum\"\n            },\n            {\n                \"id\": 2,\n                \"title\": \"Term and Condition\",\n                \"slug\": \"terms\",\n                \"content\": \"Lorem Ipsum is simply dummy text of the printing and typesetting industry. Lorem Ipsum has been the industry's standard dummy text ever since the 1500s, when an unknown printer took a galley of type and scrambled it to make a type specimen book. It has survived not only five centuries, but also the leap into electronic typesetting, remaining essentially unchanged. It was popularised in the 1960s with the release of Letraset sheets containing Lorem Ipsum passages, and more recently with desktop publishing software like Aldus PageMaker including versions of Lorem Ipsum\"\n            }\n        ]\n    }\n}"
				}
			]
		},
		{
			"name": "2.3 basic auth user",
			"request": {
				"auth": {
					"type": "basic",
					"basic": [
						{
							"key": "password",
							"value": "{{access_token}}",
							"type": "string"
						},
						{
							"key": "username",
							"value": "{{user_id}}",
							"type": "string"
						},
						{
							"key": "saveHelperData",
							"value": true,
							"type": "boolean"
						},
						{
							"key": "showPassword",
							"value": false,
							"type": "boolean"
						}
					]
				},
				"method": "GET",
				"header": [],
				"url": {
					"raw": "{{protocol}}://{{server}}/api/{{ver}}/sample/user?ut=2017-08-13T12:00:00&lang=en&app_ver=1.00&device_kind=1",
					"protocol": "{{protocol}}",
					"host": [
						"{{server}}"
					],
					"path": [
						"api",
						"{{ver}}",
						"sample",
						"user"
					],
					"query": [
						{
							"key": "ut",
							"value": "2017-08-13T12:00:00"
						},
						{
							"key": "lang",
							"value": "en"
						},
						{
							"key": "app_ver",
							"value": "1.00"
						},
						{
							"key": "device_kind",
							"value": "1"
						}
					]
				}
			},
			"response": [
				{
					"name": "2.3 basic auth user",
					"originalRequest": {
						"method": "GET",
						"header": [],
						"url": {
							"raw": "{{protocol}}://{{server}}/api/{{ver}}/sample/user?ut=2017-08-13T12:00:00&lang=en&app_ver=1.00&device_kind=1",
							"protocol": "{{protocol}}",
							"host": [
								"{{server}}"
							],
							"path": [
								"api",
								"{{ver}}",
								"sample",
								"user"
							],
							"query": [
								{
									"key": "ut",
									"value": "2017-08-13T12:00:00"
								},
								{
									"key": "lang",
									"value": "en"
								},
								{
									"key": "app_ver",
									"value": "1.00"
								},
								{
									"key": "device_kind",
									"value": "1"
								}
							]
						}
					},
					"status": "OK",
					"code": 200,
					"_postman_previewlanguage": "json",
					"header": [
						{
							"key": "Server",
							"value": "nginx/1.15.8"
						},
						{
							"key": "Content-Type",
							"value": "application/json"
						},
						{
							"key": "Transfer-Encoding",
							"value": "chunked"
						},
						{
							"key": "Connection",
							"value": "keep-alive"
						},
						{
							"key": "Vary",
							"value": "Accept-Encoding"
						},
						{
							"key": "X-Powered-By",
							"value": "PHP/7.1.30"
						},
						{
							"key": "Cache-Control",
							"value": "no-cache, private"
						},
						{
							"key": "Date",
							"value": "Mon, 26 Aug 2019 03:25:48 GMT"
						},
						{
							"key": "Content-Encoding",
							"value": "gzip"
						}
					],
					"cookie": [],
					"body": "{\n    \"result\": {\n        \"message\": \"Success!!!\",\n        \"server_time\": \"2019-08-26 11:25:48\"\n    },\n    \"data\": {\n        \"pages\": [\n            {\n                \"id\": 1,\n                \"title\": \"Privacy Policy\",\n                \"slug\": \"privacy\",\n                \"content\": \"Lorem Ipsum is simply dummy text of the printing and typesetting industry. Lorem Ipsum has been the industry's standard dummy text ever since the 1500s, when an unknown printer took a galley of type and scrambled it to make a type specimen book. It has survived not only five centuries, but also the leap into electronic typesetting, remaining essentially unchanged. It was popularised in the 1960s with the release of Letraset sheets containing Lorem Ipsum passages, and more recently with desktop publishing software like Aldus PageMaker including versions of Lorem Ipsum\"\n            },\n            {\n                \"id\": 2,\n                \"title\": \"Term and Condition\",\n                \"slug\": \"terms\",\n                \"content\": \"Lorem Ipsum is simply dummy text of the printing and typesetting industry. Lorem Ipsum has been the industry's standard dummy text ever since the 1500s, when an unknown printer took a galley of type and scrambled it to make a type specimen book. It has survived not only five centuries, but also the leap into electronic typesetting, remaining essentially unchanged. It was popularised in the 1960s with the release of Letraset sheets containing Lorem Ipsum passages, and more recently with desktop publishing software like Aldus PageMaker including versions of Lorem Ipsum\"\n            }\n        ]\n    }\n}"
				}
			]
		},
		{
			"name": "3.0 General",
			"request": {
				"auth": {
					"type": "basic",
					"basic": [
						{
							"key": "password",
							"value": "{{access_token}}",
							"type": "string"
						},
						{
							"key": "username",
							"value": "{{user_id}}",
							"type": "string"
						},
						{
							"key": "saveHelperData",
							"value": true,
							"type": "boolean"
						},
						{
							"key": "showPassword",
							"value": false,
							"type": "boolean"
						}
					]
				},
				"method": "GET",
				"header": [],
				"url": {
					"raw": "{{protocol}}://{{server}}/api/{{ver}}/general?ut=2017-08-13T12:00:00&lang=en",
					"protocol": "{{protocol}}",
					"host": [
						"{{server}}"
					],
					"path": [
						"api",
						"{{ver}}",
						"general"
					],
					"query": [
						{
							"key": "ut",
							"value": "2017-08-13T12:00:00"
						},
						{
							"key": "lang",
							"value": "en"
						}
					]
				}
			},
			"response": [
				{
					"name": "3.0 General",
					"originalRequest": {
						"method": "GET",
						"header": [],
						"url": {
							"raw": "{{protocol}}://{{server}}/api/{{ver}}/general?ut=2017-08-13T12:00:00&lang=en",
							"protocol": "{{protocol}}",
							"host": [
								"{{server}}"
							],
							"path": [
								"api",
								"{{ver}}",
								"general"
							],
							"query": [
								{
									"key": "ut",
									"value": "2017-08-13T12:00:00"
								},
								{
									"key": "lang",
									"value": "en"
								}
							]
						}
					},
					"status": "OK",
					"code": 200,
					"_postman_previewlanguage": "json",
					"header": [
						{
							"key": "Server",
							"value": "nginx/1.15.8"
						},
						{
							"key": "Content-Type",
							"value": "application/json"
						},
						{
							"key": "Transfer-Encoding",
							"value": "chunked"
						},
						{
							"key": "Connection",
							"value": "keep-alive"
						},
						{
							"key": "Vary",
							"value": "Accept-Encoding"
						},
						{
							"key": "X-Powered-By",
							"value": "PHP/7.1.30"
						},
						{
							"key": "Cache-Control",
							"value": "no-cache, private"
						},
						{
							"key": "Date",
							"value": "Mon, 26 Aug 2019 03:31:21 GMT"
						},
						{
							"key": "Content-Encoding",
							"value": "gzip"
						}
					],
					"cookie": [],
					"body": "{\n    \"result\": {\n        \"message\": \"Success!!!\",\n        \"server_time\": \"2019-08-26 11:31:21\"\n    },\n    \"data\": {\n        \"Page\": [\n            {\n                \"id\": 1,\n                \"title\": \"Privacy Policy\",\n                \"slug\": \"privacy\",\n                \"content\": \"Lorem Ipsum is simply dummy text of the printing and typesetting industry. Lorem Ipsum has been the industry's standard dummy text ever since the 1500s, when an unknown printer took a galley of type and scrambled it to make a type specimen book. It has survived not only five centuries, but also the leap into electronic typesetting, remaining essentially unchanged. It was popularised in the 1960s with the release of Letraset sheets containing Lorem Ipsum passages, and more recently with desktop publishing software like Aldus PageMaker including versions of Lorem Ipsum\"\n            },\n            {\n                \"id\": 2,\n                \"title\": \"Term and Condition\",\n                \"slug\": \"terms\",\n                \"content\": \"Lorem Ipsum is simply dummy text of the printing and typesetting industry. Lorem Ipsum has been the industry's standard dummy text ever since the 1500s, when an unknown printer took a galley of type and scrambled it to make a type specimen book. It has survived not only five centuries, but also the leap into electronic typesetting, remaining essentially unchanged. It was popularised in the 1960s with the release of Letraset sheets containing Lorem Ipsum passages, and more recently with desktop publishing software like Aldus PageMaker including versions of Lorem Ipsum\"\n            }\n        ],\n        \"News\": [\n            {\n                \"id\": 1,\n                \"title\": \"testset\",\n                \"excerpt\": \"\",\n                \"html_content\": \"<p>estset</p>\",\n                \"status\": 2\n            }\n        ]\n    }\n}"
				}
			]
		}
	]
}